<?xml version="1.0" encoding="utf-8"?>
<!-- Generator: Adobe Illustrator 24.0.2, SVG Export Plug-In . SVG Version: 6.00 Build 0)  -->
<svg version="1.1" id="Layer_1" xmlns="http://www.w3.org/2000/svg" xmlns:xlink="http://www.w3.org/1999/xlink" x="0px" y="0px"
	 viewBox="0 0 345 125" style="enable-background:new 0 0 345 125;" xml:space="preserve">
<style type="text/css">
	.st0{fill:none;stroke:#707071;stroke-width:0.5808;}
	.st1{fill:#FFFFFF;}
	.st2{fill:#478FCC;}
	.st3{fill:#FEC111;}
	.st4{fill:#4DAF4E;}
	.st5{fill:#EF4438;}
</style>
<title>play-store</title>
<g id="Group_5">
	<path class="st0" d="M8.7,0.3h327.6c4.7,0,8.4,3.8,8.4,8.4v107.6c0,4.7-3.8,8.4-8.4,8.4H8.7c-4.7,0-8.4-3.8-8.4-8.4V8.7
		C0.3,4.1,4.1,0.3,8.7,0.3z"/>
	<g>
		<path d="M8.7,0h327.6c4.8,0,8.7,3.9,8.7,8.7v107.6c0,4.8-3.9,8.7-8.7,8.7H8.7c-4.8,0-8.7-3.9-8.7-8.7V8.7C0,3.9,3.9,0,8.7,0z"/>
		<g>
			<g>
				<path class="st1" d="M164.8,31.2c0,0.3,0,0.6,0,0.9c0,0.3-0.1,0.5-0.1,0.6c-0.1,0.1-0.1,0.3-0.2,0.3c-0.1,0.1-0.2,0.1-0.3,0.1
					c-0.2,0-0.4-0.1-0.8-0.3s-0.8-0.4-1.4-0.7c-0.6-0.3-1.3-0.5-2.1-0.7s-1.7-0.3-2.8-0.3s-2.1,0.2-3,0.6s-1.7,0.9-2.3,1.6
					s-1.1,1.6-1.5,2.6c-0.3,1-0.5,2.1-0.5,3.3c0,1.3,0.2,2.5,0.5,3.5c0.4,1,0.8,1.9,1.5,2.5c0.6,0.7,1.4,1.2,2.3,1.5
					c0.9,0.3,1.9,0.5,2.9,0.5c0.5,0,1-0.1,1.6-0.2s1-0.3,1.4-0.5v-5.4h-4.4c-0.2,0-0.4-0.1-0.5-0.4c-0.1-0.3-0.2-0.7-0.2-1.4
					c0-0.3,0-0.6,0-0.8s0.1-0.4,0.1-0.5c0.1-0.1,0.1-0.2,0.2-0.3c0.1-0.1,0.2-0.1,0.3-0.1h7.8c0.2,0,0.4,0,0.5,0.1s0.3,0.2,0.4,0.3
					c0.1,0.1,0.2,0.3,0.3,0.5s0.1,0.4,0.1,0.6v9.2c0,0.4-0.1,0.7-0.2,0.9s-0.4,0.5-0.8,0.6c-0.4,0.2-0.9,0.3-1.4,0.5
					c-0.6,0.2-1.2,0.3-1.8,0.4c-0.6,0.1-1.2,0.2-1.9,0.3c-0.6,0.1-1.3,0.1-1.9,0.1c-1.9,0-3.5-0.3-5-0.8s-2.7-1.3-3.7-2.3
					s-1.8-2.2-2.3-3.7s-0.8-3.1-0.8-4.9c0-1.9,0.3-3.6,0.9-5.1c0.6-1.5,1.4-2.8,2.4-3.9c1.1-1.1,2.3-1.9,3.8-2.4
					c1.5-0.6,3.1-0.8,5-0.8c1,0,1.9,0.1,2.7,0.2s1.5,0.3,2.2,0.5c0.6,0.2,1.1,0.4,1.5,0.6s0.7,0.4,0.9,0.6s0.3,0.4,0.3,0.7
					S164.8,30.6,164.8,31.2z"/>
				<path class="st1" d="M183.4,48.9c0,0.3,0,0.6,0,0.9c0,0.2-0.1,0.4-0.1,0.6c-0.1,0.1-0.1,0.2-0.2,0.3c-0.1,0.1-0.2,0.1-0.3,0.1
					H171c-0.4,0-0.7-0.1-1-0.3s-0.4-0.6-0.4-1.1V29c0-0.5,0.1-0.9,0.4-1.1c0.3-0.2,0.6-0.3,1-0.3h11.6c0.1,0,0.2,0,0.3,0.1
					s0.2,0.2,0.2,0.3s0.1,0.3,0.1,0.6c0,0.2,0,0.5,0,0.9c0,0.3,0,0.6,0,0.9c0,0.2-0.1,0.4-0.1,0.6c-0.1,0.1-0.1,0.2-0.2,0.3
					c-0.1,0.1-0.2,0.1-0.3,0.1h-8.3v5.7h7c0.1,0,0.2,0,0.3,0.1s0.2,0.2,0.2,0.3c0.1,0.1,0.1,0.3,0.1,0.6c0,0.2,0,0.5,0,0.9
					c0,0.3,0,0.6,0,0.9s-0.1,0.4-0.1,0.5c-0.1,0.1-0.1,0.2-0.2,0.3c-0.1,0.1-0.2,0.1-0.3,0.1h-7v6.5h8.4c0.1,0,0.2,0,0.3,0.1
					s0.2,0.2,0.2,0.3c0.1,0.1,0.1,0.3,0.1,0.6C183.3,48.3,183.4,48.6,183.4,48.9z"/>
				<path class="st1" d="M202.9,29.5c0,0.3,0,0.6,0,0.9c0,0.2-0.1,0.4-0.1,0.6c-0.1,0.1-0.1,0.3-0.2,0.3c-0.1,0.1-0.2,0.1-0.3,0.1
					h-5.8v18.7c0,0.1,0,0.2-0.1,0.3s-0.2,0.2-0.4,0.2s-0.4,0.1-0.7,0.1s-0.7,0.1-1.1,0.1s-0.8,0-1.1-0.1c-0.3,0-0.5-0.1-0.7-0.1
					s-0.3-0.1-0.4-0.2c-0.1-0.1-0.1-0.2-0.1-0.3V31.4h-5.8c-0.1,0-0.2,0-0.3-0.1s-0.2-0.2-0.2-0.3c-0.1-0.1-0.1-0.3-0.1-0.6
					c0-0.2,0-0.5,0-0.9s0-0.7,0-0.9s0.1-0.5,0.1-0.6c0.1-0.1,0.1-0.3,0.2-0.3c0.1-0.1,0.2-0.1,0.3-0.1h16.3c0.1,0,0.2,0,0.3,0.1
					s0.2,0.2,0.2,0.3c0.1,0.1,0.1,0.3,0.1,0.6C202.9,28.8,202.9,29.1,202.9,29.5z"/>
				<path class="st1" d="M218.7,50.1c0,0.1,0,0.2-0.1,0.3s-0.2,0.2-0.4,0.2c-0.2,0.1-0.4,0.1-0.7,0.1s-0.7,0.1-1.1,0.1
					c-0.5,0-0.8,0-1.1-0.1s-0.5-0.1-0.7-0.1c-0.2-0.1-0.3-0.1-0.4-0.2c-0.1-0.1-0.1-0.2-0.1-0.3V28.2c0-0.1,0-0.2,0.1-0.3
					c0.1-0.1,0.2-0.2,0.4-0.2c0.2-0.1,0.4-0.1,0.7-0.1s0.7-0.1,1.1-0.1c0.5,0,0.8,0,1.1,0.1c0.3,0,0.5,0.1,0.7,0.1
					c0.2,0.1,0.3,0.1,0.4,0.2c0.1,0.1,0.1,0.2,0.1,0.3V50.1z"/>
				<path class="st1" d="M239.2,29.5c0,0.3,0,0.6,0,0.9c0,0.2-0.1,0.4-0.1,0.6s-0.1,0.3-0.2,0.3c-0.1,0.1-0.2,0.1-0.3,0.1h-5.8v18.7
					c0,0.1,0,0.2-0.1,0.3s-0.2,0.2-0.4,0.2c-0.2,0.1-0.4,0.1-0.7,0.1s-0.7,0.1-1.1,0.1s-0.8,0-1.1-0.1c-0.3,0-0.5-0.1-0.7-0.1
					c-0.2-0.1-0.3-0.1-0.4-0.2c-0.1-0.1-0.1-0.2-0.1-0.3V31.4h-5.8c-0.1,0-0.2,0-0.3-0.1s-0.2-0.2-0.2-0.3c-0.1-0.1-0.1-0.3-0.1-0.6
					c0-0.2,0-0.5,0-0.9s0-0.7,0-0.9c0-0.3,0.1-0.5,0.1-0.6c0.1-0.1,0.1-0.3,0.2-0.3c0.1-0.1,0.2-0.1,0.3-0.1h16.3
					c0.1,0,0.2,0,0.3,0.1s0.2,0.2,0.2,0.3s0.1,0.3,0.1,0.6C239.2,28.8,239.2,29.1,239.2,29.5z"/>
				<path class="st1" d="M271.1,38.9c0,1.9-0.2,3.6-0.7,5.2c-0.5,1.5-1.2,2.8-2.1,3.9c-0.9,1.1-2.1,1.9-3.5,2.4
					c-1.4,0.6-3,0.8-4.8,0.8s-3.4-0.2-4.7-0.7s-2.5-1.2-3.4-2.2s-1.6-2.2-2-3.7s-0.7-3.3-0.7-5.3c0-1.9,0.2-3.6,0.7-5.1
					s1.2-2.8,2.1-3.8c0.9-1.1,2.1-1.9,3.5-2.4c1.4-0.6,3-0.8,4.8-0.8c1.8,0,3.3,0.2,4.7,0.7c1.3,0.5,2.5,1.2,3.4,2.2s1.6,2.2,2,3.7
					S271.1,36.9,271.1,38.9z M266.2,39.1c0-1.2-0.1-2.3-0.3-3.3c-0.2-1-0.5-1.9-1-2.6c-0.5-0.7-1.1-1.3-1.8-1.6
					c-0.8-0.4-1.7-0.6-2.9-0.6c-1.2,0-2.1,0.2-2.9,0.7c-0.8,0.4-1.4,1-1.9,1.7s-0.8,1.6-1,2.6s-0.3,2-0.3,3.1c0,1.3,0.1,2.4,0.3,3.4
					s0.5,1.9,1,2.6c0.5,0.7,1.1,1.3,1.8,1.6c0.8,0.4,1.7,0.6,2.9,0.6s2.1-0.2,2.9-0.6c0.8-0.4,1.4-1,1.9-1.8c0.5-0.7,0.8-1.6,1-2.6
					C266.1,41.3,266.2,40.2,266.2,39.1z"/>
				<path class="st1" d="M294.2,49.1c0,0.3,0,0.5-0.1,0.7s-0.2,0.4-0.4,0.5c-0.2,0.1-0.4,0.2-0.6,0.3s-0.4,0.1-0.7,0.1h-2
					c-0.4,0-0.8,0-1.1-0.1c-0.3-0.1-0.6-0.2-0.8-0.5c-0.3-0.2-0.5-0.5-0.7-0.9s-0.5-0.9-0.8-1.5L281.2,37c-0.3-0.6-0.7-1.3-1-2.1
					c-0.3-0.7-0.7-1.5-0.9-2.2l0,0c0,0.9,0.1,1.7,0.1,2.6c0,0.9,0,1.7,0,2.6V50c0,0.1,0,0.2-0.1,0.3s-0.2,0.2-0.3,0.2
					s-0.4,0.1-0.7,0.2c-0.3,0-0.6,0.1-1.1,0.1c-0.4,0-0.8,0-1-0.1c-0.3,0-0.5-0.1-0.6-0.2c-0.2-0.1-0.3-0.1-0.3-0.2
					s-0.1-0.2-0.1-0.3V29.2c0-0.6,0.2-1,0.5-1.3s0.7-0.4,1.2-0.4h2.5c0.5,0,0.8,0,1.1,0.1c0.3,0.1,0.6,0.2,0.8,0.4
					c0.2,0.2,0.5,0.4,0.7,0.7s0.4,0.7,0.7,1.2l4.5,8.5c0.3,0.5,0.5,1,0.8,1.5s0.5,1,0.7,1.5s0.5,1,0.7,1.5s0.4,1,0.7,1.4l0,0
					c0-0.8-0.1-1.7-0.1-2.6c0-0.9,0-1.8,0-2.6V28.3c0-0.1,0-0.2,0.1-0.3c0.1-0.1,0.2-0.2,0.4-0.3c0.2-0.1,0.4-0.1,0.7-0.2
					c0.3,0,0.6,0,1.1,0c0.4,0,0.7,0,1,0s0.5,0.1,0.6,0.2s0.3,0.2,0.3,0.3c0.1,0.1,0.1,0.2,0.1,0.3v20.8H294.2z"/>
				<path class="st1" d="M162.1,78.6c0,1.3-0.2,2.5-0.6,3.5c-0.4,1-1,1.8-1.8,2.5s-1.7,1.2-2.9,1.6s-2.5,0.5-4,0.5h-1.9v7.4
					c0,0.1,0,0.2-0.1,0.3s-0.2,0.2-0.4,0.2c-0.2,0.1-0.4,0.1-0.7,0.1s-0.7,0.1-1.1,0.1c-0.5,0-0.8,0-1.1-0.1c-0.3,0-0.5-0.1-0.7-0.1
					c-0.2-0.1-0.3-0.1-0.4-0.2s-0.1-0.2-0.1-0.3V73.3c0-0.6,0.1-1,0.4-1.3c0.3-0.3,0.7-0.4,1.2-0.4h5.5c0.5,0,1.1,0,1.6,0.1
					c0.5,0,1.1,0.1,1.8,0.3s1.4,0.4,2.1,0.8c0.7,0.4,1.3,0.8,1.8,1.4s0.9,1.2,1.1,2C162,76.9,162.1,77.7,162.1,78.6z M157.2,79
					c0-0.8-0.1-1.5-0.4-2c-0.3-0.5-0.6-0.9-1.1-1.2c-0.4-0.3-0.9-0.4-1.3-0.5c-0.5-0.1-0.9-0.1-1.4-0.1h-2v7.9h2.1
					c0.8,0,1.4-0.1,1.9-0.3s0.9-0.5,1.2-0.9s0.6-0.8,0.7-1.3S157.2,79.6,157.2,79z"/>
				<path class="st1" d="M170,94.2c0,0.1,0,0.2-0.1,0.3c-0.1,0.1-0.2,0.2-0.4,0.2c-0.2,0.1-0.4,0.1-0.7,0.1s-0.7,0-1.1,0
					s-0.8,0-1.1,0s-0.5-0.1-0.7-0.1s-0.3-0.1-0.4-0.2s-0.1-0.2-0.1-0.3V70.6c0-0.1,0-0.2,0.1-0.3s0.2-0.2,0.4-0.2s0.4-0.1,0.7-0.2
					s0.7-0.1,1.1-0.1s0.8,0,1.1,0.1s0.5,0.1,0.7,0.2s0.3,0.1,0.4,0.2c0.1,0.1,0.1,0.2,0.1,0.3V94.2z"/>
				<path class="st1" d="M188.1,94.2c0,0.2-0.1,0.3-0.2,0.4s-0.3,0.2-0.6,0.2s-0.6,0.1-1.1,0.1s-0.9,0-1.2-0.1
					c-0.2,0-0.4-0.1-0.5-0.2s-0.2-0.2-0.2-0.4V93c-0.7,0.7-1.4,1.3-2.2,1.6c-0.8,0.4-1.8,0.6-2.8,0.6c-0.8,0-1.6-0.1-2.3-0.3
					c-0.7-0.2-1.3-0.5-1.8-1c-0.5-0.4-0.9-1-1.2-1.6s-0.4-1.4-0.4-2.3s0.2-1.7,0.5-2.4c0.4-0.7,0.9-1.3,1.6-1.7s1.6-0.8,2.7-1
					s2.3-0.3,3.7-0.3h1.6v-1c0-0.5-0.1-0.9-0.2-1.3c-0.1-0.4-0.3-0.7-0.5-0.9s-0.5-0.4-0.9-0.6c-0.4-0.1-0.9-0.2-1.4-0.2
					c-0.8,0-1.4,0.1-2,0.3s-1.1,0.4-1.6,0.6s-0.8,0.4-1.1,0.6s-0.6,0.3-0.7,0.3c-0.1,0-0.2,0-0.3-0.1s-0.2-0.2-0.3-0.4
					c-0.1-0.2-0.1-0.3-0.2-0.6c0-0.2-0.1-0.5-0.1-0.8c0-0.4,0-0.7,0.1-0.9c0.1-0.2,0.2-0.4,0.3-0.6c0.2-0.2,0.5-0.4,0.9-0.6
					s0.9-0.4,1.5-0.6s1.2-0.3,1.8-0.4s1.3-0.2,2.1-0.2c1.3,0,2.3,0.1,3.2,0.4c0.9,0.2,1.6,0.6,2.2,1.1c0.6,0.5,1,1.2,1.3,2
					s0.4,1.8,0.4,2.8v10.7H188.1z M183.7,87.4H182c-0.7,0-1.4,0.1-1.9,0.2s-0.9,0.3-1.3,0.5c-0.3,0.2-0.6,0.5-0.7,0.8
					s-0.2,0.7-0.2,1c0,0.7,0.2,1.2,0.6,1.6c0.4,0.4,1,0.6,1.8,0.6c0.6,0,1.2-0.2,1.7-0.5s1.1-0.8,1.6-1.4L183.7,87.4L183.7,87.4z"/>
				<path class="st1" d="M201.2,94.8l-1.9,5.7c-0.1,0.3-0.4,0.5-0.9,0.6s-1.2,0.2-2.1,0.2c-0.5,0-0.9,0-1.1-0.1s-0.5-0.1-0.6-0.2
					s-0.2-0.2-0.2-0.4c0-0.1,0-0.3,0.1-0.5l2.1-5.4c-0.2-0.1-0.3-0.2-0.4-0.3s-0.2-0.3-0.3-0.5l-5.5-14.7c-0.2-0.4-0.2-0.7-0.2-1
					c0-0.2,0.1-0.4,0.2-0.5s0.4-0.2,0.7-0.3c0.3,0,0.8-0.1,1.4-0.1c0.5,0,0.9,0,1.2,0s0.5,0.1,0.7,0.1c0.2,0.1,0.3,0.2,0.4,0.3
					s0.2,0.4,0.3,0.6l3.8,10.7h0.1l3.4-10.9c0.1-0.3,0.2-0.5,0.3-0.6s0.3-0.2,0.6-0.2s0.7-0.1,1.4-0.1c0.5,0,0.9,0,1.3,0.1
					c0.3,0,0.6,0.1,0.8,0.3c0.2,0.1,0.2,0.3,0.2,0.5s0,0.5-0.1,0.8L201.2,94.8z"/>
				<path class="st1" d="M231.7,87.8c0,1.2-0.2,2.3-0.7,3.2s-1.1,1.7-1.8,2.3c-0.8,0.6-1.7,1.1-2.7,1.4s-2.2,0.5-3.3,0.5
					c-0.8,0-1.5-0.1-2.2-0.2s-1.3-0.3-1.8-0.5s-1-0.4-1.3-0.6c-0.4-0.2-0.6-0.4-0.8-0.5s-0.3-0.4-0.3-0.7s-0.1-0.7-0.1-1.3
					c0-0.4,0-0.7,0-0.9c0-0.3,0.1-0.5,0.1-0.6s0.1-0.3,0.2-0.3c0.1-0.1,0.2-0.1,0.3-0.1c0.2,0,0.4,0.1,0.7,0.3s0.7,0.4,1.2,0.7
					c0.5,0.2,1,0.5,1.7,0.7s1.4,0.3,2.3,0.3c0.6,0,1.1-0.1,1.5-0.2c0.5-0.1,0.8-0.3,1.2-0.6s0.6-0.6,0.7-0.9
					c0.2-0.4,0.3-0.8,0.3-1.2c0-0.5-0.1-1-0.4-1.4c-0.3-0.4-0.7-0.7-1.1-1c-0.5-0.3-1-0.6-1.6-0.8c-0.6-0.3-1.2-0.5-1.8-0.8
					s-1.2-0.6-1.8-1s-1.1-0.8-1.6-1.3s-0.8-1.1-1.1-1.8c-0.3-0.7-0.4-1.5-0.4-2.5c0-1.1,0.2-2.1,0.6-2.9c0.4-0.8,1-1.5,1.7-2.1
					s1.5-1,2.5-1.2c1-0.3,2-0.4,3-0.4c0.5,0,1.1,0,1.6,0.1s1.1,0.2,1.5,0.3c0.5,0.1,0.9,0.3,1.3,0.5c0.4,0.2,0.6,0.3,0.7,0.4
					c0.1,0.1,0.2,0.2,0.2,0.3c0,0.1,0.1,0.2,0.1,0.3c0,0.1,0.1,0.3,0.1,0.5s0,0.5,0,0.8s0,0.6,0,0.9c0,0.2,0,0.4-0.1,0.6
					c0,0.2-0.1,0.3-0.2,0.3c-0.1,0.1-0.2,0.1-0.3,0.1s-0.3-0.1-0.6-0.3c-0.3-0.2-0.6-0.3-1.1-0.5c-0.4-0.2-0.9-0.4-1.5-0.5
					c-0.5-0.2-1.2-0.2-1.8-0.2c-0.5,0-1,0.1-1.3,0.2c-0.4,0.1-0.7,0.3-1,0.5s-0.4,0.5-0.6,0.8c-0.1,0.3-0.2,0.6-0.2,1
					c0,0.5,0.1,1,0.4,1.3c0.3,0.4,0.7,0.7,1.1,1s1,0.6,1.6,0.8c0.6,0.3,1.2,0.5,1.8,0.8s1.2,0.6,1.8,1s1.1,0.8,1.6,1.3
					s0.8,1.1,1.1,1.8C231.5,86.1,231.7,86.9,231.7,87.8z"/>
				<path class="st1" d="M244.4,92.6c0,0.5,0,0.9-0.1,1.2s-0.2,0.5-0.3,0.6s-0.3,0.2-0.5,0.3c-0.2,0.1-0.5,0.2-0.7,0.2
					c-0.3,0.1-0.6,0.1-0.9,0.2c-0.3,0-0.7,0.1-1,0.1c-0.9,0-1.7-0.1-2.3-0.3c-0.7-0.2-1.2-0.6-1.6-1c-0.4-0.5-0.7-1.1-0.9-1.8
					c-0.2-0.7-0.3-1.6-0.3-2.5v-8.2h-1.9c-0.2,0-0.4-0.1-0.5-0.4s-0.2-0.7-0.2-1.4c0-0.3,0-0.6,0-0.9c0-0.2,0.1-0.4,0.1-0.6
					c0.1-0.1,0.1-0.2,0.2-0.3c0.1-0.1,0.2-0.1,0.3-0.1h1.9V74c0-0.1,0-0.2,0.1-0.3c0.1-0.1,0.2-0.2,0.4-0.2c0.2-0.1,0.4-0.1,0.7-0.1
					s0.7,0,1.1,0c0.4,0,0.8,0,1.1,0s0.5,0.1,0.7,0.1c0.2,0.1,0.3,0.1,0.4,0.2c0.1,0.1,0.1,0.2,0.1,0.3v3.6h3.5c0.1,0,0.2,0,0.3,0.1
					s0.2,0.2,0.2,0.3c0.1,0.1,0.1,0.3,0.1,0.6c0,0.2,0,0.5,0,0.9c0,0.7-0.1,1.1-0.2,1.4c-0.1,0.3-0.3,0.4-0.5,0.4h-3.5v7.5
					c0,0.9,0.1,1.5,0.4,2c0.3,0.4,0.8,0.7,1.5,0.7c0.2,0,0.5,0,0.6-0.1s0.4-0.1,0.5-0.1s0.3-0.1,0.4-0.1c0.1,0,0.2-0.1,0.3-0.1
					s0.1,0,0.2,0.1s0.1,0.1,0.2,0.3s0.1,0.3,0.1,0.5C244.4,92,244.4,92.3,244.4,92.6z"/>
				<path class="st1" d="M263.5,86c0,1.4-0.2,2.6-0.5,3.7s-0.9,2.1-1.6,2.9s-1.6,1.4-2.7,1.9c-1.1,0.4-2.4,0.7-3.9,0.7
					c-1.4,0-2.7-0.2-3.7-0.6c-1.1-0.4-1.9-1-2.6-1.7c-0.7-0.8-1.2-1.7-1.5-2.8c-0.3-1.1-0.5-2.4-0.5-3.8s0.2-2.6,0.5-3.7
					s0.9-2.1,1.6-2.9c0.7-0.8,1.6-1.4,2.7-1.9c1.1-0.4,2.4-0.7,3.8-0.7s2.7,0.2,3.7,0.6s1.9,1,2.6,1.7c0.7,0.8,1.2,1.7,1.5,2.8
					C263.3,83.3,263.5,84.6,263.5,86z M258.9,86.2c0-0.8-0.1-1.5-0.2-2.2s-0.3-1.2-0.6-1.7c-0.3-0.5-0.7-0.9-1.2-1.1
					c-0.5-0.3-1.1-0.4-1.9-0.4c-0.7,0-1.3,0.1-1.8,0.4c-0.5,0.2-0.9,0.6-1.2,1.1s-0.6,1-0.7,1.7s-0.2,1.4-0.2,2.3
					c0,0.8,0.1,1.5,0.2,2.2s0.3,1.2,0.6,1.7s0.7,0.9,1.2,1.1c0.5,0.3,1.1,0.4,1.9,0.4c0.7,0,1.3-0.1,1.8-0.4
					c0.5-0.2,0.9-0.6,1.2-1.1c0.3-0.5,0.6-1,0.7-1.7S258.9,87.1,258.9,86.2z"/>
				<path class="st1" d="M277.4,79.7c0,0.4,0,0.8,0,1.1c0,0.3-0.1,0.5-0.1,0.6c0,0.2-0.1,0.3-0.2,0.3c-0.1,0.1-0.2,0.1-0.3,0.1
					c-0.1,0-0.2,0-0.3-0.1c-0.1,0-0.3-0.1-0.4-0.1s-0.3-0.1-0.5-0.1s-0.4-0.1-0.6-0.1c-0.3,0-0.5,0.1-0.8,0.2s-0.5,0.3-0.8,0.5
					s-0.5,0.5-0.8,0.9s-0.6,0.8-0.9,1.3v10c0,0.1,0,0.2-0.1,0.3c-0.1,0.1-0.2,0.2-0.4,0.2c-0.2,0.1-0.4,0.1-0.7,0.1
					c-0.3,0-0.7,0-1.1,0s-0.8,0-1.1,0c-0.3,0-0.5-0.1-0.7-0.1c-0.2-0.1-0.3-0.1-0.4-0.2s-0.1-0.2-0.1-0.3v-16c0-0.1,0-0.2,0.1-0.3
					c0.1-0.1,0.2-0.2,0.3-0.2s0.4-0.1,0.6-0.1s0.6,0,0.9,0c0.4,0,0.7,0,1,0s0.4,0.1,0.6,0.1s0.2,0.1,0.3,0.2
					c0.1,0.1,0.1,0.2,0.1,0.3v2c0.4-0.6,0.8-1.1,1.2-1.5c0.4-0.4,0.7-0.7,1.1-0.9c0.3-0.2,0.7-0.4,1-0.5s0.7-0.1,1-0.1
					c0.2,0,0.3,0,0.5,0s0.4,0,0.6,0.1c0.2,0,0.4,0.1,0.5,0.1c0.1,0.1,0.2,0.1,0.3,0.2c0.1,0.1,0.1,0.1,0.1,0.2s0.1,0.2,0.1,0.3
					c0,0.1,0,0.3,0.1,0.6S277.4,79.3,277.4,79.7z"/>
				<path class="st1" d="M294.5,85.7c0,0.5-0.1,1-0.4,1.2c-0.2,0.3-0.6,0.4-1,0.4h-9.7c0,0.7,0.1,1.3,0.2,1.9c0.2,0.6,0.4,1,0.8,1.4
					s0.8,0.7,1.4,0.9c0.6,0.2,1.2,0.3,2,0.3s1.5-0.1,2.1-0.2s1.1-0.2,1.6-0.4c0.4-0.1,0.8-0.3,1.1-0.4c0.3-0.1,0.5-0.2,0.7-0.2
					c0.1,0,0.2,0,0.3,0.1s0.1,0.1,0.2,0.2c0,0.1,0.1,0.3,0.1,0.5s0,0.4,0,0.7c0,0.3,0,0.5,0,0.7s0,0.3-0.1,0.5
					c0,0.1-0.1,0.2-0.1,0.3s-0.1,0.2-0.2,0.3c-0.1,0.1-0.3,0.2-0.6,0.3s-0.8,0.3-1.3,0.4s-1.2,0.3-1.8,0.4c-0.7,0.1-1.4,0.2-2.2,0.2
					c-1.4,0-2.7-0.2-3.7-0.5s-2-0.9-2.7-1.6s-1.3-1.6-1.6-2.8c-0.4-1.1-0.5-2.4-0.5-3.9c0-1.4,0.2-2.7,0.6-3.8
					c0.4-1.1,0.9-2.1,1.6-2.9s1.6-1.4,2.6-1.8s2.1-0.6,3.4-0.6s2.5,0.2,3.4,0.6s1.7,0.9,2.3,1.6c0.6,0.7,1.1,1.5,1.3,2.5
					c0.3,1,0.4,2,0.4,3.1v0.6H294.5z M290.1,84.4c0-1.3-0.2-2.3-0.8-3c-0.5-0.7-1.4-1.1-2.5-1.1c-0.6,0-1.1,0.1-1.5,0.3
					c-0.4,0.2-0.8,0.5-1.1,0.9c-0.3,0.4-0.5,0.8-0.6,1.3s-0.2,1-0.3,1.6C283.3,84.4,290.1,84.4,290.1,84.4z"/>
			</g>
			<g id="Group_3">
				<g id="Group_2">
					<g id="google-play">
						<path id="Path_4" class="st2" d="M81.3,60.3l-40.6,40.6c-1.9-1.8-3-4.4-3-7.1V30.2c0-2.7,1.1-5.3,3.1-7.2L81.3,60.3z"/>
						<path id="Path_5" class="st3" d="M116.4,61.9c0,3.7-2.1,7-5.3,8.8l-11.5,6.4L85.2,63.9l-3.9-3.6l15.2-15.2l14.6,8.1
							C114.4,54.9,116.4,58.3,116.4,61.9L116.4,61.9z"/>
						<path id="Path_6" class="st4" d="M81.3,60.3L40.6,23c0.6-0.5,1.2-1,1.9-1.4c3.3-2,7.4-2,10.7-0.1l43.2,23.6L81.3,60.3z"/>
						<path id="Path_7" class="st5" d="M99.6,77.1l-46.2,25.4c-1.6,0.9-3.4,1.4-5.3,1.4s-3.8-0.5-5.5-1.5c-0.7-0.4-1.4-0.9-2-1.5
							l40.6-40.6l3.9,3.6L99.6,77.1z"/>
					</g>
				</g>
			</g>
		</g>
	</g>
</g>
</svg>
